<svg version="1.1" xmlns="http://www.w3.org/2000/svg" xmlns:xlink="http://www.w3.org/1999/xlink"
	 viewBox="0 0 166.9 192.7">
<linearGradient id="SVGID_1_" gradientUnits="userSpaceOnUse" x1="-12.4859" y1="95.9488" x2="180.7964" y2="95.9488" gradientTransform="matrix(4.489659e-011 -1 1 4.489659e-011 -12.4859 180.2633)">
	<stop  offset="0" style="stop-color:#AE32EE"/>
	<stop  offset="1" style="stop-color:#E9379B"/>
</linearGradient>
<polygon fill="url(#SVGID_1_)" points="166.9,192.7 0,96.4 166.9,0 "/>
</svg>
